V3 16
FL D:/RH_lab2/GVV_ALL.vhf 2016/10/15.21:16:26 P.20131013
EN work/GVV_ALL 1476555400 FL D:/RH_lab2/GVV_ALL.vhf PB ieee/std_logic_1164 1381692176 \
      PB ieee/NUMERIC_STD 1381692181 LB UNISIM PH unisim/VCOMPONENTS 1381692182
AR work/GVV_ALL/BEHAVIORAL 1476555401 \
      FL D:/RH_lab2/GVV_ALL.vhf EN work/GVV_ALL 1476555400 CP GVV_MULT \
      CP GVV_mod_multiplier CP GVV_IP
FL D:/RH_lab2/GVV_mod_multiplier.vhd 2016/10/14.16:01:51 P.20131013
EN work/GVV_mod_multiplier 1476556389 FL D:/RH_lab2/GVV_mod_multiplier.vhd \
      PB ieee/std_logic_1164 1381692176 PB ieee/NUMERIC_STD 1381692181
AR work/GVV_mod_multiplier/Behavioral 1476556390 \
      FL D:/RH_lab2/GVV_mod_multiplier.vhd EN work/GVV_mod_multiplier 1476556389
FL D:/RH_lab2/GVV_MULT.vhd 2016/10/14.15:44:40 P.20131013
EN work/GVV_MULT 1476555887 FL D:/RH_lab2/GVV_MULT.vhd PB ieee/std_logic_1164 1381692176 \
      PB ieee/NUMERIC_STD 1381692181
AR work/GVV_MULT/Behavioral 1476555888 \
      FL D:/RH_lab2/GVV_MULT.vhd EN work/GVV_MULT 1476555887
FL D:/RH_lab2/ipcore_dir/GVV_IP.vhd 2016/10/14.16:11:02 P.20131013
EN work/GVV_IP 1476555398 FL D:/RH_lab2/ipcore_dir/GVV_IP.vhd \
      PB ieee/std_logic_1164 1381692176
AR work/GVV_IP/GVV_IP_a 1476555399 \
      FL D:/RH_lab2/ipcore_dir/GVV_IP.vhd EN work/GVV_IP 1476555398
