<?xml version="1.0" encoding="UTF-8"?>
<drawing version="7">
    <attr value="virtex4" name="DeviceFamilyName">
        <trait delete="all:0" />
        <trait editname="all:0" />
        <trait edittrait="all:0" />
    </attr>
    <netlist>
        <signal name="gvv_B(7:0)" />
        <signal name="gvv_prod(15:0)" />
        <signal name="gvv_mPROD(15:0)" />
        <signal name="gvvv_IP(15:0)" />
        <signal name="gvv_A(7:0)" />
        <port polarity="Input" name="gvv_B(7:0)" />
        <port polarity="Output" name="gvv_prod(15:0)" />
        <port polarity="Output" name="gvv_mPROD(15:0)" />
        <port polarity="Output" name="gvvv_IP(15:0)" />
        <port polarity="Input" name="gvv_A(7:0)" />
        <blockdef name="GVV_MULT">
            <timestamp>2016-10-14T12:46:5</timestamp>
            <rect width="336" x="64" y="-128" height="128" />
            <rect width="64" x="0" y="-108" height="24" />
            <line x2="0" y1="-96" y2="-96" x1="64" />
            <rect width="64" x="0" y="-44" height="24" />
            <line x2="0" y1="-32" y2="-32" x1="64" />
            <rect width="64" x="400" y="-108" height="24" />
            <line x2="464" y1="-96" y2="-96" x1="400" />
        </blockdef>
        <blockdef name="GVV_mod_multiplier">
            <timestamp>2016-10-14T13:3:53</timestamp>
            <rect width="352" x="64" y="-128" height="128" />
            <rect width="64" x="0" y="-108" height="24" />
            <line x2="0" y1="-96" y2="-96" x1="64" />
            <rect width="64" x="0" y="-44" height="24" />
            <line x2="0" y1="-32" y2="-32" x1="64" />
            <rect width="64" x="416" y="-108" height="24" />
            <line x2="480" y1="-96" y2="-96" x1="416" />
        </blockdef>
        <blockdef name="GVV_IP">
            <timestamp>2016-10-14T13:11:7</timestamp>
            <rect width="512" x="32" y="32" height="384" />
            <line x2="32" y1="80" y2="80" style="linewidth:W" x1="0" />
            <line x2="32" y1="144" y2="144" style="linewidth:W" x1="0" />
            <line x2="544" y1="80" y2="80" style="linewidth:W" x1="576" />
        </blockdef>
        <block symbolname="GVV_MULT" name="XLXI_1">
            <blockpin signalname="gvv_A(7:0)" name="GVV_A(7:0)" />
            <blockpin signalname="gvv_B(7:0)" name="GVV_B(7:0)" />
            <blockpin signalname="gvv_prod(15:0)" name="GVV_PROD(15:0)" />
        </block>
        <block symbolname="GVV_mod_multiplier" name="XLXI_2">
            <blockpin signalname="gvv_A(7:0)" name="GVV_A(7:0)" />
            <blockpin signalname="gvv_B(7:0)" name="GVV_B(7:0)" />
            <blockpin signalname="gvv_mPROD(15:0)" name="GVV_mPROD(15:0)" />
        </block>
        <block symbolname="GVV_IP" name="XLXI_3">
            <blockpin signalname="gvv_A(7:0)" name="a(7:0)" />
            <blockpin signalname="gvv_B(7:0)" name="b(7:0)" />
            <blockpin signalname="gvvv_IP(15:0)" name="p(15:0)" />
        </block>
    </netlist>
    <sheet sheetnum="1" width="3520" height="2720">
        <instance x="1376" y="624" name="XLXI_1" orien="R0">
        </instance>
        <instance x="1376" y="928" name="XLXI_2" orien="R0">
        </instance>
        <branch name="gvv_B(7:0)">
            <wire x2="1184" y1="592" y2="592" x1="1152" />
            <wire x2="1376" y1="592" y2="592" x1="1184" />
            <wire x2="1184" y1="592" y2="896" x1="1184" />
            <wire x2="1184" y1="896" y2="1200" x1="1184" />
            <wire x2="1376" y1="1200" y2="1200" x1="1184" />
            <wire x2="1376" y1="896" y2="896" x1="1184" />
        </branch>
        <branch name="gvv_prod(15:0)">
            <wire x2="2160" y1="528" y2="528" x1="1840" />
        </branch>
        <branch name="gvv_mPROD(15:0)">
            <wire x2="2160" y1="832" y2="832" x1="1856" />
        </branch>
        <instance x="1376" y="1056" name="XLXI_3" orien="R0">
        </instance>
        <branch name="gvvv_IP(15:0)">
            <wire x2="2176" y1="1136" y2="1136" x1="1952" />
        </branch>
        <branch name="gvv_A(7:0)">
            <wire x2="1216" y1="528" y2="528" x1="1152" />
            <wire x2="1376" y1="528" y2="528" x1="1216" />
            <wire x2="1216" y1="528" y2="832" x1="1216" />
            <wire x2="1216" y1="832" y2="1136" x1="1216" />
            <wire x2="1376" y1="1136" y2="1136" x1="1216" />
            <wire x2="1376" y1="832" y2="832" x1="1216" />
        </branch>
        <iomarker fontsize="28" x="1152" y="528" name="gvv_A(7:0)" orien="R180" />
        <iomarker fontsize="28" x="1152" y="592" name="gvv_B(7:0)" orien="R180" />
        <iomarker fontsize="28" x="2160" y="528" name="gvv_prod(15:0)" orien="R0" />
        <iomarker fontsize="28" x="2160" y="832" name="gvv_mPROD(15:0)" orien="R0" />
        <iomarker fontsize="28" x="2176" y="1136" name="gvvv_IP(15:0)" orien="R0" />
    </sheet>
</drawing>